-------------------------------------------------------------------------------
Test set: com.cpe.springboot.RestServiceTest
-------------------------------------------------------------------------------
Tests run: 1, Failures: 0, Errors: 0, Skipped: 0, Time elapsed: 0.714 s - in com.cpe.springboot.RestServiceTest
