C:\Users\guill\Desktop\Projet Majeur\super-debat\BackendMongo\src\main\java\com\cpe\springboot\debat\controller\DebatRefService.java
C:\Users\guill\Desktop\Projet Majeur\super-debat\BackendMongo\src\main\java\com\cpe\springboot\user\controller\UserRepository.java
C:\Users\guill\Desktop\Projet Majeur\super-debat\BackendMongo\src\main\java\com\cpe\springboot\debat\model\FactCheckingModel.java
C:\Users\guill\Desktop\Projet Majeur\super-debat\BackendMongo\src\main\java\com\cpe\springboot\debat\controller\DebatRefRepository.java
C:\Users\guill\Desktop\Projet Majeur\super-debat\BackendMongo\src\main\java\com\cpe\springboot\user\controller\UserRestController.java
C:\Users\guill\Desktop\Projet Majeur\super-debat\BackendMongo\src\main\java\com\cpe\springboot\debat\controller\DebatModelRepository.java
C:\Users\guill\Desktop\Projet Majeur\super-debat\BackendMongo\src\main\java\com\cpe\springboot\user\controller\UserService.java
C:\Users\guill\Desktop\Projet Majeur\super-debat\BackendMongo\src\main\java\com\cpe\springboot\user\model\User.java
C:\Users\guill\Desktop\Projet Majeur\super-debat\BackendMongo\src\main\java\com\cpe\springboot\user\model\UserModel.java
C:\Users\guill\Desktop\Projet Majeur\super-debat\BackendMongo\src\main\java\com\cpe\springboot\debat\controller\DebatRestController.java
C:\Users\guill\Desktop\Projet Majeur\super-debat\BackendMongo\src\main\java\com\cpe\springboot\SuperDebatApplication.java
C:\Users\guill\Desktop\Projet Majeur\super-debat\BackendMongo\src\main\java\com\cpe\springboot\debat\model\DebatModelShort.java
C:\Users\guill\Desktop\Projet Majeur\super-debat\BackendMongo\src\main\java\com\cpe\springboot\arg\model\ArgModel.java
C:\Users\guill\Desktop\Projet Majeur\super-debat\BackendMongo\src\main\java\com\cpe\springboot\arg\controller\ArgModelRepository.java
C:\Users\guill\Desktop\Projet Majeur\super-debat\BackendMongo\src\main\java\com\cpe\springboot\debat\model\DebatModel.java
C:\Users\guill\Desktop\Projet Majeur\super-debat\BackendMongo\src\main\java\com\cpe\springboot\arg\controller\ArgModelService.java
C:\Users\guill\Desktop\Projet Majeur\super-debat\BackendMongo\src\main\java\com\cpe\springboot\debat\controller\DebatModelService.java
C:\Users\guill\Desktop\Projet Majeur\super-debat\BackendMongo\src\main\java\com\cpe\springboot\debat\model\DebatReference.java
C:\Users\guill\Desktop\Projet Majeur\super-debat\BackendMongo\src\main\java\com\cpe\springboot\arg\controller\ArgRestController.java
C:\Users\guill\Desktop\Projet Majeur\super-debat\BackendMongo\src\main\java\com\cpe\springboot\RestService.java
